Cross Validation
…
background-image: url("img/the-office.jpeg")
class: middle

---

## Data

```r
office_ratings <- read_csv("data/office_ratings.csv")
office_ratings
```

```
## # A tibble: 188 × 6
##   season episode title         imdb_rating total_votes air_date  
##    <dbl>   <dbl> <chr>               <dbl>       <dbl> <date>    
## 1      1       1 Pilot                 7.6        3706 2005-03-24
## 2      1       2 Diversity Day         8.3        3566 2005-03-29
## 3      1       3 Health Care           7.9        2983 2005-04-05
## 4      1       4 The Alliance          8.1        2886 2005-04-12
## 5      1       5 Basketball            8.4        3179 2005-04-19
## 6      1       6 Hot Girl              7.8        2852 2005-04-26
## # ℹ 182 more rows
```
…
# Evaluate model

---

## Make predictions for training data

```r
office_train_pred <- predict(office_fit, office_train) %>%
  bind_cols(office_train %>% select(imdb_rating, title))

office_train_pred
```

```
## # A tibble: 141 × 3
##   .pred imdb_rating title              
##   <dbl>       <dbl> <chr>              
## 1  8.10         8.6 Happy Hour         
## 2  8.10         8.2 Shareholder Meeting
## 3  7.72         7.8 The Boat           
## 4  8.05         8.1 Baby Shower        
## 5  7.82         7.3 Lotto              
## 6  7.89         7.5 Christening        
## # ℹ 135 more rows
```
…
---

## Make predictions for testing data

```r
office_test_pred <- predict(office_fit, office_test) %>%
  bind_cols(office_test %>% select(imdb_rating, title))

office_test_pred
```

```
## # A tibble: 47 × 3
##   .pred imdb_rating title              
##   <dbl>       <dbl> <chr>              
## 1  8.44         8.3 Diversity Day      
## 2  8.10         8.1 The Alliance       
## 3  8.99         8.7 The Dundies        
## 4  8.54         8.6 The Client         
## 5  8.55         8.4 E-Mail Surveillance
## 6  8.98         8.8 Christmas Party    
## # ℹ 41 more rows
```
…
