Data Types and Classes
…
---

## Example: Cat lovers

A survey asked respondents their name and number of cats. The instructions said to enter the number of cats as a numerical value.

.pull-left[

``` r
cat_lovers <- read_csv("data/cat-lovers.csv")
```

```
## # A tibble: 60 × 3
##    name           number_of_cats handedness
##    <chr>          <chr>          <chr>     
##  1 Bernice Warren 0              left      
##  2 Woodrow Stone  0              left      
##  3 Willie Bass    1              left      
##  4 Tyrone Estrada 3              left      
##  5 Alex Daniels   3              left      
##  6 Jane Bates     2              left      
##  7 Latoya Simpson 1              left      
##  8 Darin Woods    1              left      
##  9 Agnes Cobb     0              left      
## 10 Tabitha Grant  0              left      
## # ℹ 50 more rows
```
…
