Model building
…
---

## Predict outcome on the testing dataset

```r
predict(email_fit, test_data)
```

```
## # A tibble: 785 × 1
##   .pred_class
##   <fct>      
## 1 0          
## 2 0          
## 3 0          
## 4 0          
## 5 0          
## 6 0          
## # ℹ 779 more rows
```

---

## Predict probabilities on the testing dataset

```r
email_pred <- predict(email_fit, test_data, type = "prob") %>%
  bind_cols(test_data %>% select(spam, time))

email_pred
```

```
## # A tibble: 785 × 4
##   .pred_0 .pred_1 spam  time               
##     <dbl>   <dbl> <fct> <dttm>             
## 1   0.993 0.00665 0     2012-01-01 17:55:06
## 2   0.998 0.00172 0     2012-01-01 19:38:32
## 3   0.981 0.0188  0     2012-01-02 05:42:16
## 4   0.999 0.00110 0     2012-01-02 15:12:51
## 5   0.988 0.0124  0     2012-01-02 16:45:36
## 6   0.826 0.174   0     2012-01-02 21:55:03
## # ℹ 779 more rows
```

---

## A closer look at predictions

.pull-left-wide[

```r
email_pred %>%
  arrange(desc(.pred_1)) %>%
  print(n = 10)
```

```
## # A tibble: 785 × 4
##    .pred_0 .pred_1 spam  time               
##      <dbl>   <dbl> <fct> <dttm>             
##  1  0.0939   0.906 1     2012-02-13 12:15:00
*##  2  0.161    0.839 0     2012-01-27 20:05:06
##  3  0.175    0.825 1     2012-03-01 05:40:27
##  4  0.264    0.736 1     2012-03-17 10:13:27
##  5  0.381    0.619 1     2012-03-21 12:33:12
##  6  0.446    0.554 1     2012-03-06 11:46:20
##  7  0.481    0.519 1     2012-02-10 12:53:18
*##  8  0.486    0.514 0     2012-01-22 21:23:41
##  9  0.497    0.503 1     2012-02-08 08:00:05
*## 10  0.509    0.491 0     2012-02-17 01:57:16
## # ℹ 775 more rows
```
…
---

## Make predictions for test data

```r
email_pred <- predict(email_fit, test_data, type = "prob") %>% 
  bind_cols(test_data) 

email_pred
```

```
## # A tibble: 785 × 23
##   .pred_0  .pred_1 spam  to_multiple from     cc sent_email
##     <dbl>    <dbl> <fct> <fct>       <fct> <int> <fct>     
## 1   0.995 0.00486  0     1           1         0 1         
## 2   0.999 0.00133  0     0           1         1 1         
## 3   0.968 0.0322   0     0           1         0 0         
## 4   0.999 0.000613 0     0           1         1 0         
## 5   0.993 0.00674  0     0           1         4 0         
## 6   0.868 0.132    0     0           1         0 0         
## # ℹ 779 more rows
## # ℹ 16 more variables: time <dttm>, image <dbl>, attach <dbl>,
## #   dollar <dbl>, winner <fct>, inherit <dbl>, viagra <dbl>,
## #   password <dbl>, num_char <dbl>, line_breaks <int>,
## #   format <fct>, re_subj <fct>, exclaim_subj <dbl>,
## #   urgent_subj <fct>, exclaim_mess <dbl>, number <fct>
```
…
