Tidy Data and Data Wrangling
…
---

## `select` specific variables

.pull-left[

```r
select(starwars, name, height, mass)
```

```
## # A tibble: 87 × 3
##    name               height  mass
##    <chr>               <int> <dbl>
##  1 Luke Skywalker        172    77
##  2 C-3PO                 167    75
##  3 R2-D2                  96    32
##  4 Darth Vader           202   136
##  5 Leia Organa           150    49
##  6 Owen Lars             178   120
##  7 Beru Whitesun lars    165    75
##  8 R5-D4                  97    32
##  9 Biggs Darklighter     183    84
## 10 Obi-Wan Kenobi        182    77
## # … with 77 more rows
```
]

.pull-right[

```r
select(starwars, -name)
```

```
## # A tibble: 87 × 13
##    height  mass hair_c…¹ skin_…² eye_c…³
##     <int> <dbl> <chr>    <chr>   <chr>  
##  1    172    77 blond    fair    blue   
##  2    167    75 <NA>     gold    yellow 
##  3     96    32 <NA>     white,… red    
##  4    202   136 none     white   yellow 
##  5    150    49 brown    light   brown  
##  6    178   120 brown, … light   blue   
##  7    165    75 brown    light   blue   
##  8     97    32 <NA>     white,… red    
##  9    183    84 black    light   brown  
## 10    182    77 auburn,… fair    blue-g…
## # … with 77 more rows, 8 more
## #   variables: birth_year <dbl>,
## #   sex <chr>, gender <chr>,
## #   homeworld <chr>, species <chr>,
## #   films <list>, vehicles <list>,
## #   starships <list>, and abbreviated
## #   variable names ¹​hair_color, …
```
]

---

## Select helper functions

.pull-left[

```r
select(starwars, ends_with("color"))
```

```
## # A tibble: 87 × 3
##    hair_color    skin_color  eye_color
##    <chr>         <chr>       <chr>    
##  1 blond         fair        blue     
##  2 <NA>          gold        yellow   
##  3 <NA>          white, blue red      
##  4 none          white       yellow   
##  5 brown         light       brown    
##  6 brown, grey   light       blue     
##  7 brown         light       blue     
##  8 <NA>          white, red  red      
##  9 black         light       brown    
## 10 auburn, white fair        blue-gray
## # … with 77 more rows
```
…
.pull-right[

```
## # A tibble: 87 × 16
##    name         bmi speci…¹ height  mass
##    <chr>      <dbl> <chr>    <int> <dbl>
##  1 Jabba Des… 443.  Other      175  1358
##  2 Dud Bolt    50.9 Other       94    45
##  3 Yoda        39.0 Other       66    17
##  4 Owen Lars   37.9 Human      178   120
##  5 IG-88       35   Droid      200   140
##  6 R2-D2       34.7 Droid       96    32
##  7 Grievous    34.1 Other      216   159
##  8 R5-D4       34.0 Droid       97    32
##  9 Jek Tono …  34.0 Human      180   110
## 10 Darth Vad…  33.3 Human      202   136
## # … with 77 more rows, 11 more
## #   variables: hair_color <chr>,
## #   skin_color <chr>, eye_color <chr>,
## #   birth_year <dbl>, sex <chr>,
## #   gender <chr>, homeworld <chr>,
## #   species <chr>, films <list>,
## #   vehicles <list>, …
```
…
.pull-left[

* **Take the `starwars` data set and ...**

]

.pull-right[
.small[

```r
*starwars
```

```
## # A tibble: 87 × 14
##    name   height  mass hair_…¹ skin_…² eye_c…³ birth…⁴ sex  
##    <chr>   <int> <dbl> <chr>   <chr>   <chr>     <dbl> <chr>
##  1 Luke …    172    77 blond   fair    blue       19   male 
##  2 C-3PO     167    75 <NA>    gold    yellow    112   none 
##  3 R2-D2      96    32 <NA>    white,… red        33   none 
##  4 Darth…    202   136 none    white   yellow     41.9 male 
##  5 Leia …    150    49 brown   light   brown      19   fema…
##  6 Owen …    178   120 brown,… light   blue       52   male 
##  7 Beru …    165    75 brown   light   blue       47   fema…
##  8 R5-D4      97    32 <NA>    white,… red        NA   none 
##  9 Biggs…    183    84 black   light   brown      24   male 
## 10 Obi-W…    182    77 auburn… fair    blue-g…    57   male 
## # … with 77 more rows, 6 more variables: gender <chr>,
## #   homeworld <chr>, species <chr>, films <list>,
## #   vehicles <list>, starships <list>, and abbreviated
## #   variable names ¹​hair_color, ²​skin_color, ³​eye_color,
## #   ⁴​birth_year
```
…
* Take the `starwars` data set and ...
* **... select the `species` and `height` variables. **

]

.pull-right[
.small[

```r
starwars %>%
* select(species, height)
```

```
## # A tibble: 87 × 2
##    species height
##    <chr>    <int>
##  1 Human      172
##  2 Droid      167
##  3 Droid       96
##  4 Human      202
##  5 Human      150
##  6 Human      178
##  7 Human      165
##  8 Droid       97
##  9 Human      183
## 10 Human      182
## # … with 77 more rows
```
…
.pull-right[
.small[

```r
starwars %>%
  select(species, height) %>%
* mutate(species_group = case_when(
*   species == "Droid" ~ "Droid",
*   species == "Human" ~ "Human",
*   TRUE ~ "Other"))
```

```
## # A tibble: 87 × 3
##    species height species_group
##    <chr>    <int> <chr>        
##  1 Human      172 Human        
##  2 Droid      167 Droid        
##  3 Droid       96 Droid        
##  4 Human      202 Human        
##  5 Human      150 Human        
##  6 Human      178 Human        
##  7 Human      165 Human        
##  8 Droid       97 Droid        
##  9 Human      183 Human        
## 10 Human      182 Human        
## # … with 77 more rows
```
…
.pull-right[
.small[

```r
starwars %>%
  select(species, height) %>%
  mutate(species_group = case_when(
    species == "Droid" ~ "Droid",
    species == "Human" ~ "Human",
    TRUE ~ "Other")) %>%
* group_by(species_group)
```

```
## # A tibble: 87 × 3
## # Groups:   species_group [3]
##    species height species_group
##    <chr>    <int> <chr>        
##  1 Human      172 Human        
##  2 Droid      167 Droid        
##  3 Droid       96 Droid        
##  4 Human      202 Human        
##  5 Human      150 Human        
##  6 Human      178 Human        
##  7 Human      165 Human        
##  8 Droid       97 Droid        
##  9 Human      183 Human        
## 10 Human      182 Human        
## # … with 77 more rows
```
…
