Doing Data Science
…
## Berkeley admission data

- Study carried out by the Graduate Division of the University of California, Berkeley in the early 70’s to evaluate whether there was a gender bias in graduate admissions.
- The data come from six departments (labelled A--F). 
- We have information on whether the applicant was male or female and whether they were admitted or rejected. 
- First, we will evaluate whether the percentage of males admitted is indeed higher than females, overall. Next, we will calculate the same percentage for each department.

---

## Data

.pull-left[

```
## # A tibble: 4,526 × 3
##    admit    gender dept 
##    <fct>    <fct>  <ord>
##  1 Admitted Male   A    
##  2 Admitted Male   A    
##  3 Admitted Male   A    
##  4 Admitted Male   A    
##  5 Admitted Male   A    
##  6 Admitted Male   A    
##  7 Admitted Male   A    
##  8 Admitted Male   A    
##  9 Admitted Male   A    
## 10 Admitted Male   A    
## 11 Admitted Male   A    
## 12 Admitted Male   A    
## 13 Admitted Male   A    
## 14 Admitted Male   A    
## 15 Admitted Male   A    
## # ℹ 4,511 more rows
```
…
.question[
What can you say about the gender distribution by department ?
]

.panelset[
.panel[.panel-name[Long]

``` r
ucbadmit %>%
  count(dept, gender, admit)
```

```
## # A tibble: 24 × 4
##    dept  gender admit        n
##    <ord> <fct>  <fct>    <int>
##  1 A     Female Rejected    19
##  2 A     Female Admitted    89
##  3 A     Male   Rejected   313
##  4 A     Male   Admitted   512
##  5 B     Female Rejected     8
##  6 B     Female Admitted    17
##  7 B     Male   Rejected   207
##  8 B     Male   Admitted   353
##  9 C     Female Rejected   391
## 10 C     Female Admitted   202
## # ℹ 14 more rows
```
…
